<svg width="64" height="95" viewBox="0 0 64 95" fill="none" xmlns="http://www.w3.org/2000/svg">
<g clip-path="url(#clip0)">
<path fill-rule="evenodd" clip-rule="evenodd" d="M62.768 94.8071H0V92.8071H62.768V94.8071Z" fill="#D5D3D3"/>
<path fill-rule="evenodd" clip-rule="evenodd" d="M3.79473 28.0448L4.50783 28.1462C9.90478 28.9137 14.9066 31.4128 18.7611 35.2676C22.6155 39.1224 25.1141 44.1245 25.8811 49.5215L26.0769 50.8995L24.7084 50.6454C14.3976 48.7306 9.02286 43.4064 6.25599 38.4971C4.882 36.0592 4.16175 33.7444 3.78428 32.0368C3.59533 31.1821 3.49157 30.4764 3.43485 29.9792C3.40648 29.7304 3.38983 29.5335 3.38019 29.3958C3.37537 29.3269 3.37229 29.2728 3.37038 29.2344L3.3683 29.1886L3.36777 29.1748L3.36761 29.1702L3.36755 29.1684C3.36753 29.1677 3.39036 28.9215 3.47261 28.689L3.79473 28.0448ZM5.50101 30.344C5.5554 30.7017 5.63133 31.1265 5.73713 31.6051C6.08213 33.1658 6.74194 35.2859 7.99832 37.5151C10.3674 41.7187 14.8965 46.3859 23.6545 48.3857C22.7428 43.9623 20.555 39.8903 17.3468 36.6817C14.1042 33.4388 9.97937 31.2382 5.50101 30.344Z" fill="#D5D3D3"/>
<path fill-rule="evenodd" clip-rule="evenodd" d="M62.7313 43.8784C62.7321 43.8784 63.4599 44.1599 63.764 44.8779V44.9486L63.754 45.0185C62.7535 52.0647 59.4919 58.5953 54.4599 63.6281C49.4279 68.6608 42.8977 71.9234 35.8517 72.925L34.4735 73.1209L34.7278 71.7523C37.234 58.2615 44.19 51.2536 50.583 47.6485C53.7628 45.8554 56.7825 44.9147 59.0095 44.4216C60.124 44.1749 61.043 44.0395 61.6887 43.9656C62.0117 43.9287 62.2666 43.9071 62.4437 43.8946C62.5323 43.8884 62.6015 43.8844 62.6501 43.882C62.6743 43.8807 62.6935 43.8799 62.7073 43.8793L62.724 43.8787L62.7294 43.8785L62.7313 43.8784ZM36.9771 70.7116C43.0542 69.5591 48.6567 66.6035 53.0456 62.214C57.4702 57.7886 60.4374 52.13 61.5686 45.9955C61.0135 46.0688 60.2908 46.1864 59.4419 46.3743C57.3618 46.8349 54.5366 47.7151 51.5654 49.3906C45.8755 52.5992 39.5722 58.7642 36.9771 70.7116Z" fill="#D5D3D3"/>
<path fill-rule="evenodd" clip-rule="evenodd" d="M60.8539 1.10665L59.8599 1.21581C60.8539 1.10665 60.854 1.10727 60.8541 1.10798L60.8543 1.10991L60.8549 1.11559L60.8568 1.13416C60.8584 1.14973 60.8606 1.17163 60.8632 1.1997C60.8684 1.25584 60.8754 1.33666 60.8831 1.44079C60.8987 1.64902 60.9174 1.95061 60.931 2.33455C60.9583 3.10218 60.9653 4.20049 60.8866 5.54109C60.7291 8.21941 60.228 11.8816 58.8486 15.8116C56.0773 23.7077 49.7702 32.6361 35.7803 36.8179L35.2075 34.9017C48.4926 30.9305 54.3686 22.5369 56.9615 15.1493C58.2642 11.4374 58.7405 7.96726 58.89 5.42374C58.9629 4.18257 58.9579 3.16604 58.934 2.45506C49.8548 4.65238 44.0708 8.67094 40.2975 13.2636C36.3558 18.0612 34.5436 23.5637 33.5402 28.4813C32.7552 32.4301 32.3699 36.4478 32.3899 40.4738L32.3899 40.4788L32.3899 93.8088H30.3899V40.4813C30.3694 36.321 30.7678 32.1692 31.5791 28.0888L31.5801 28.0839L31.5801 28.0839C32.6168 23.0022 34.5212 17.1436 38.7521 11.994C42.9965 6.82797 49.5178 2.45353 59.6463 0.238888L60.7326 0.00137329L60.8539 1.10665Z" fill="#D5D3D3"/>
</g>
<defs>
<clipPath id="clip0">
<rect width="63.925" height="94.807" fill="white"/>
</clipPath>
</defs>
</svg>
