<svg width="12" height="10" viewBox="0 0 12 10" fill="none" xmlns="http://www.w3.org/2000/svg">
<path fill-rule="evenodd" clip-rule="evenodd" d="M1.33334 5.66667H9.24334L6.82134 8.57334C6.58534 8.856 6.624 9.27667 6.90667 9.512C7.19 9.748 7.61 9.70934 7.846 9.42667L11.1793 5.42667C11.2053 5.39534 11.218 5.35867 11.2373 5.324C11.2533 5.296 11.2727 5.272 11.2847 5.24134C11.3147 5.16467 11.3327 5.084 11.3327 5.00267C11.3327 5.002 11.3333 5.00067 11.3333 5C11.3333 4.99934 11.3327 4.998 11.3327 4.99734C11.3327 4.916 11.3147 4.83534 11.2847 4.75867C11.2727 4.728 11.2533 4.704 11.2373 4.676C11.218 4.64134 11.2053 4.60467 11.1793 4.57334L7.846 0.573336C7.71334 0.415336 7.524 0.333336 7.33334 0.333336C7.18267 0.333336 7.03134 0.384003 6.90667 0.488003C6.624 0.723336 6.58534 1.144 6.82134 1.42667L9.24334 4.33334H1.33334C0.965338 4.33334 0.666672 4.632 0.666672 5C0.666672 5.368 0.965338 5.66667 1.33334 5.66667Z" fill="#231F20"/>
</svg>
