<svg width="10" height="12" viewBox="0 0 10 12" fill="none" xmlns="http://www.w3.org/2000/svg">
<path fill-rule="evenodd" clip-rule="evenodd" d="M4.33341 1.33335L4.33341 9.24335L1.42674 6.82135C1.14408 6.58535 0.723414 6.62401 0.488084 6.90668C0.252084 7.19001 0.290744 7.61001 0.573414 7.84601L4.57341 11.1793C4.60474 11.2053 4.64141 11.218 4.67608 11.2373C4.70408 11.2533 4.72808 11.2727 4.75874 11.2847C4.83541 11.3147 4.91608 11.3327 4.99741 11.3327C4.99808 11.3327 4.99941 11.3333 5.00008 11.3333C5.00074 11.3333 5.00208 11.3327 5.00274 11.3327C5.08408 11.3327 5.16474 11.3147 5.24141 11.2847C5.27208 11.2727 5.29608 11.2533 5.32408 11.2373C5.35874 11.218 5.39541 11.2053 5.42674 11.1793L9.42675 7.84601C9.58475 7.71335 9.66675 7.52401 9.66675 7.33335C9.66675 7.18268 9.61608 7.03135 9.51208 6.90668C9.27675 6.62401 8.85608 6.58535 8.57341 6.82135L5.66674 9.24335L5.66674 1.33335C5.66674 0.965353 5.36808 0.666687 5.00008 0.666687C4.63208 0.666687 4.33341 0.965353 4.33341 1.33335Z" fill="#231F20"/>
</svg>
