<svg width="16" height="16" viewBox="0 0 16 16" fill="none" xmlns="http://www.w3.org/2000/svg">
<path fill-rule="evenodd" clip-rule="evenodd" d="M10.6667 7.11111C10.1751 7.11111 9.77778 7.50934 9.77778 8C9.77778 8.98045 8.98045 9.77778 8.00001 9.77778C7.01956 9.77778 6.22223 8.98045 6.22223 8C6.22223 7.50934 5.8249 7.11111 5.33334 7.11111C4.84178 7.11111 4.44445 7.50934 4.44445 8C4.44445 9.96089 6.03912 11.5556 8.00001 11.5556C9.96089 11.5556 11.5556 9.96089 11.5556 8C11.5556 7.50934 11.1582 7.11111 10.6667 7.11111ZM13.3334 14.2222H2.66669C2.17603 14.2222 1.7778 13.8231 1.7778 13.3333V5.33334H14.2222V13.3333C14.2222 13.8231 13.824 14.2222 13.3334 14.2222ZM4.55203 2.03822C4.71825 1.87289 4.9467 1.77777 5.18047 1.77777H10.8196C11.0534 1.77777 11.2818 1.87289 11.448 2.03822L12.9654 3.55555H3.0347L4.55203 2.03822ZM15.2187 3.29511L12.7049 0.781333C12.2018 0.277333 11.5316 0 10.8196 0H5.18044C4.46844 0 3.79822 0.277333 3.29511 0.781333L0.781333 3.29511C0.277333 3.79822 0 4.46844 0 5.18133V13.3333C0 14.8036 1.19644 16 2.66667 16H13.3333C14.8036 16 16 14.8036 16 13.3333V5.18133C16 4.46844 15.7227 3.79822 15.2187 3.29511Z" fill="#2B2D42"/>
</svg>
