<svg width="16" height="16" viewBox="0 0 16 16" fill="none" xmlns="http://www.w3.org/2000/svg">
<path fill-rule="evenodd" clip-rule="evenodd" d="M9.88542 8L15.6094 2.276C16.1308 1.75466 16.1308 0.911998 15.6094 0.390664C15.0881 -0.130669 14.2454 -0.130669 13.7241 0.390664L8.00009 6.11466L2.27609 0.390664C1.75476 -0.130669 0.912089 -0.130669 0.390756 0.390664C-0.130578 0.911998 -0.130578 1.75466 0.390756 2.276L6.11476 8L0.390756 13.724C-0.130578 14.2453 -0.130578 15.088 0.390756 15.6093C0.650756 15.8693 0.992089 16 1.33342 16C1.67476 16 2.01609 15.8693 2.27609 15.6093L8.00009 9.88533L13.7241 15.6093C13.9841 15.8693 14.3254 16 14.6668 16C15.0081 16 15.3494 15.8693 15.6094 15.6093C16.1308 15.088 16.1308 14.2453 15.6094 13.724L9.88542 8Z" fill="#231F20"/>
</svg>
