<svg width="24" height="24" viewBox="0 0 24 24" fill="none" xmlns="http://www.w3.org/2000/svg">
<g clip-path="url(#clip0)">
<path fill-rule="evenodd" clip-rule="evenodd" d="M10.9038 9.67734L8.70395 7.47745C8.09651 6.87001 8.0855 5.89601 8.6795 5.302L10.0052 3.97634C10.5167 3.46484 11.3229 3.4277 12.0328 3.62114C12.6752 3.79617 13.3505 3.80356 13.9893 3.64326C14.6949 3.46566 15.5023 3.5208 16.0254 4.04391L21.7811 9.79955C22.3885 10.407 22.3995 11.381 21.8055 11.975L18.579 15.2015C17.985 15.7955 17.011 15.7845 16.4036 15.1771L14.2037 12.9772L6.67516 20.5057C6.08116 21.0997 5.10716 21.0887 4.49972 20.4812L3.39977 19.3813C2.79233 18.7738 2.78133 17.7998 3.37533 17.2058L10.9038 9.67734ZM9.77945 6.40195L11.1006 5.08081C11.1058 5.07828 11.1153 5.07414 11.1309 5.06986C11.145 5.06591 11.1641 5.06187 11.1891 5.05837C11.2976 5.04333 11.4631 5.05129 11.6595 5.10461C12.5584 5.3497 13.5023 5.36024 14.3957 5.13549C14.5914 5.08644 14.7567 5.0822 14.8655 5.09961C14.9183 5.10804 14.9446 5.11882 14.9548 5.12425L20.7056 10.8751L17.4791 14.1016L9.77945 6.40195ZM13.1037 11.8772L12.0038 10.7773L4.47527 18.3058L5.57522 19.4057L13.1037 11.8772Z" fill="#2B2D42"/>
</g>
<defs>
<clipPath id="clip0">
<rect width="24" height="24" fill="white"/>
</clipPath>
</defs>
</svg>
