<svg width="16" height="16" viewBox="0 0 16 16" fill="none" xmlns="http://www.w3.org/2000/svg">
<path fill-rule="evenodd" clip-rule="evenodd" d="M7.6451 1.9248C9.2816 0.284547 11.9223 -0.0117034 13.7463 1.4148C15.9311 3.1233 16.0743 6.30705 14.1761 8.2098L13.1088 9.27855C12.8141 9.57405 12.3371 9.57405 12.0423 9.27855C11.7476 8.9838 11.7476 8.50455 12.0423 8.2098L13.1088 7.1403C14.3501 5.89755 14.2826 3.8313 12.9048 2.6778C11.6846 1.65555 9.8531 1.85055 8.72885 2.97705L7.7741 3.9333C7.4801 4.2288 7.0016 4.2288 6.7076 3.9333C6.41285 3.63855 6.40985 3.1623 6.84035 2.73105L7.6451 1.9248ZM8.96945 5.96978L5.96944 8.96978C5.6762 9.26303 5.6762 9.73703 5.96944 10.0303C6.11569 10.1765 6.30769 10.25 6.49969 10.25C6.6917 10.25 6.8837 10.1765 7.02994 10.0303L10.0299 7.03028C10.3232 6.73703 10.3232 6.26303 10.0299 5.96978C9.7367 5.67653 9.2627 5.67653 8.96945 5.96978ZM8.20995 12.0474L7.25445 13.0007C6.1287 14.1234 4.29345 14.3169 3.07245 13.2992C1.6932 12.1502 1.62495 10.0907 2.8677 8.8509L3.93645 7.7859C4.2312 7.4919 4.2312 7.0149 3.93645 6.72015C3.6417 6.42691 3.1632 6.42691 2.8677 6.72015L1.91145 7.6749C0.282451 9.2994 -0.0032987 11.9124 1.4052 13.7304C3.10845 15.9302 6.30345 16.0787 8.20995 14.1782L9.2787 13.1132C9.57345 12.8184 9.57345 12.3422 9.2787 12.0474C8.9832 11.7527 8.50545 11.7527 8.20995 12.0474Z" fill="#231F20"/>
</svg>
