<svg width="18" height="18" viewBox="0 0 18 18" fill="none" xmlns="http://www.w3.org/2000/svg">
<path fill-rule="evenodd" clip-rule="evenodd" d="M4.50008 2.33332C3.30508 2.33332 2.33341 3.30499 2.33341 4.49999C2.33341 10.6567 7.34258 15.6667 13.5001 15.6667C14.6942 15.6667 15.6667 14.695 15.6667 13.5C15.6667 13.4075 15.6609 13.3167 15.6492 13.2267L11.7992 12.3433C11.7226 12.49 11.6384 12.6492 11.5617 12.7975C11.1817 13.5225 10.9067 14.0492 10.2051 13.7667C7.45008 12.8 5.20091 10.55 4.22175 7.76166C3.92425 7.10749 4.49091 6.81082 5.20925 6.43582C5.35508 6.35916 5.51258 6.27666 5.65675 6.20166L4.77341 2.35082C4.68091 2.33916 4.59091 2.33332 4.50008 2.33332ZM13.5001 17.3333C6.42341 17.3333 0.666748 11.5767 0.666748 4.49999C0.666748 2.38582 2.38591 0.666656 4.50008 0.666656C4.71675 0.666656 4.93091 0.68499 5.13841 0.720823C5.34091 0.753323 5.54425 0.80499 5.74258 0.873323C6.01341 0.96749 6.21758 1.19499 6.28175 1.47499L7.42258 6.44499C7.48591 6.71832 7.40675 7.00499 7.21175 7.20832C7.09841 7.32666 7.09591 7.32916 6.06258 7.86999C6.89925 9.68166 8.35341 11.1308 10.1284 11.9392C10.6701 10.905 10.6734 10.9017 10.7917 10.7883C10.9951 10.5933 11.2834 10.5175 11.5551 10.5775L16.5259 11.7183C16.8051 11.7825 17.0326 11.9858 17.1259 12.2567C17.1942 12.4533 17.2459 12.6567 17.2801 12.8658C17.3151 13.0717 17.3334 13.285 17.3334 13.5C17.3334 15.6142 15.6134 17.3333 13.5001 17.3333Z" fill="#231F20"/>
</svg>
